<?xml version="1.0" encoding="utf-8"?>
<!-- Generator: Adobe Illustrator 22.1.0, SVG Export Plug-In . SVG Version: 6.00 Build 0)  -->
<svg version="1.1" id="papelycarton" xmlns="http://www.w3.org/2000/svg" xmlns:xlink="http://www.w3.org/1999/xlink" x="0px"
	 y="0px" viewBox="0 0 400 82" style="enable-background:new 0 0 400 82;" xml:space="preserve">
<style type="text/css">
	.st0{fill:#FFFFFF;}
	.st1{fill:#FF5349;}
</style>
<g>
	<g id="papel">
		<path class="st0" d="M19,21.1c2.1-1.3,4.3-2,6.8-2c4.1,0,7.2,1.4,9.3,4.3c2.1,2.9,3.2,6.7,3.2,11.6c0,4.1-1,8.2-2.9,12.5
			c-1.9,4.3-4.6,7.8-8.2,10.7c-3.6,2.8-7.7,4.3-12.3,4.3c-1.5,0-3.4-0.3-5.9-0.9L6.4,80.8H0.7l7.6-56.2l-4-1.5l0.5-2.4l8.3-1.6
			l1.4,0.8l-0.7,6C15.2,24,16.9,22.4,19,21.1z M15.9,58.9c3.3,0,6.3-1.2,8.7-3.6c2.5-2.4,4.3-5.4,5.6-9c1.3-3.6,1.9-7.2,1.9-10.8
			c0-3.8-0.7-6.7-2-8.8c-1.3-2.1-3.1-3.1-5.4-3.1c-2.3,0-4.5,0.7-6.5,2.2c-2.1,1.5-3.7,3.1-4.8,5L9.7,57.1
			C11.2,58.3,13.2,58.9,15.9,58.9z"/>
		<path class="st0" d="M70.6,56.2c0,0.8,0.2,1.4,0.5,1.7c0.3,0.4,0.7,0.5,1,0.5c0.5,0,1-0.2,1.5-0.5c0.5-0.3,1.1-0.9,1.8-1.6
			l1.1,1.7c-0.2,0.4-0.7,1-1.4,1.7c-0.7,0.7-1.6,1.4-2.7,2c-1.1,0.6-2.2,0.9-3.3,0.9c-3.1,0-4.6-1.7-4.4-5l0.5-3.1
			c-1.7,2.2-3.7,4.1-6,5.7c-2.3,1.6-4.6,2.4-7.1,2.4c-4,0-6.9-1.4-8.8-4.3c-1.9-2.9-2.9-6.7-2.9-11.6c0-4,0.9-8.2,2.9-12.5
			c1.9-4.3,4.6-7.9,8.2-10.7c3.6-2.9,7.7-4.3,12.5-4.3c1.1,0,2.3,0.1,3.7,0.4c1.4,0.3,2.6,0.6,3.8,0.9l4.1-1.2l-4.9,36.1
			C70.7,55.6,70.6,55.9,70.6,56.2z M63.2,22.9c-3.5,0-6.4,1.2-8.9,3.6c-2.5,2.4-4.4,5.4-5.7,9c-1.3,3.6-1.9,7.2-1.9,10.7
			c0,3.9,0.6,6.8,1.7,9c1.1,2.1,2.8,3.2,5.1,3.2c2.3,0,4.5-0.9,6.7-2.7c2.2-1.8,4.1-3.7,5.6-5.9l3.3-25.1
			C67.5,23.4,65.5,22.9,63.2,22.9z"/>
		<path class="st0" d="M96.2,21.1c2.1-1.3,4.3-2,6.8-2c4.1,0,7.2,1.4,9.3,4.3c2.1,2.9,3.2,6.7,3.2,11.6c0,4.1-1,8.2-2.9,12.5
			c-1.9,4.3-4.6,7.8-8.2,10.7c-3.6,2.8-7.7,4.3-12.3,4.3c-1.5,0-3.4-0.3-5.9-0.9l-2.6,19.2H78l7.6-56.2l-4-1.5l0.5-2.4l8.3-1.6
			l1.4,0.8l-0.7,6C92.4,24,94.2,22.4,96.2,21.1z M93.1,58.9c3.3,0,6.3-1.2,8.7-3.6c2.5-2.4,4.3-5.4,5.6-9c1.3-3.6,1.9-7.2,1.9-10.8
			c0-3.8-0.7-6.7-2-8.8c-1.3-2.1-3.1-3.1-5.4-3.1c-2.3,0-4.5,0.7-6.5,2.2c-2.1,1.5-3.7,3.1-4.8,5l-3.7,26.4
			C88.4,58.3,90.5,58.9,93.1,58.9z"/>
		<path class="st0" d="M141.6,60.1c-2.8,1.7-5.9,2.5-9.2,2.5c-3.3,0-6-0.8-8.2-2.3c-2.2-1.5-3.7-3.5-4.8-5.9c-1-2.4-1.5-5.1-1.5-7.9
			c0-4.7,0.9-9.2,2.9-13.4c1.9-4.2,4.5-7.6,7.8-10.1c3.3-2.5,6.9-3.8,10.9-3.8c3.4,0,6,0.9,7.7,2.6c1.8,1.7,2.6,3.9,2.6,6.6
			c0,3.6-1.5,6.5-4.5,9c-3,2.4-6.5,4.3-10.6,5.5c-4.1,1.2-7.6,1.9-10.5,1.9c-0.1,0.4-0.1,0.9-0.1,1.7c0,3.2,0.7,6,2.3,8.3
			c1.5,2.4,3.8,3.5,6.9,3.5c2.1,0,4.4-0.5,6.7-1.5c2.3-1,4.4-2.5,6.4-4.4l1.4,2.6C146.5,56.7,144.4,58.4,141.6,60.1z M131.3,25.6
			c-2,2-3.6,4.4-4.8,7.2c-1.2,2.9-1.9,5.7-2.1,8.4c2.9-0.1,5.8-0.7,8.8-1.7c3-1,5.6-2.5,7.6-4.3c2.1-1.8,3.1-4,3.1-6.5
			c-0.1-2-0.6-3.5-1.6-4.6c-1-1.1-2.4-1.6-4.2-1.6C135.5,22.7,133.3,23.7,131.3,25.6z"/>
		<path class="st0" d="M160.3,56.6c0,0.6,0.1,1.1,0.3,1.4c0.2,0.3,0.5,0.5,0.8,0.5c1.1,0,2.4-0.8,4-2.5l1,1.7
			c-0.6,1-1.5,2.1-2.9,3.2c-1.4,1.1-3.1,1.7-5,1.7c-2.6,0-3.9-1.4-3.9-4.3l0.2-2.8l7-49.1l-4.5-1.2l0.6-2.6l8.7-1.3l1.4,0.9
			l-7.5,53.6L160.3,56.6z"/>
	</g>
	<path id="y" class="st1" d="M171.1,26.2c-0.2-0.3-0.5-0.4-0.9-0.4c-0.7,0-1.3,0.2-1.9,0.6l-1.1-2.8c0.6-0.8,1.9-1.7,3.7-2.7
		c1.8-1,3.8-1.5,5.8-1.5c2.1,0,3.8,0.4,4.9,1.3c1.1,0.9,1.8,2.1,2,3.8l4.6,28.8l1.1,7.3l2.4-5c3.9-8.4,5.9-15.3,5.9-20.7
		c0-1.1-0.1-2.1-0.3-2.9c-0.2-0.8-0.4-1.7-0.8-2.6c-0.4-0.8-0.6-1.6-0.8-2.3c-0.1-0.7-0.2-1.5-0.2-2.5c0-1.4,0.5-2.6,1.5-3.6
		c1-1,2.4-1.4,4.3-1.4c2.1,0,3.7,0.8,4.8,2.3c1.2,1.5,1.8,3.3,1.8,5.3c0,3.6-0.5,6.8-1.4,9.6c-0.9,2.9-2.4,6.5-4.5,10.8
		c-1.9,4.1-6.3,11.8-13.3,23.1c-2.4,4-4.9,6.8-7.4,8.3c-2.5,1.5-5.4,2.2-8.6,2.2c-1.5,0-3-0.2-4.6-0.5c-1.6-0.4-2.6-0.7-3.1-1.1
		l2.8-7.4c0.5,0.5,1.5,1.1,2.9,1.5c1.4,0.5,2.7,0.7,3.9,0.7c2.4,0,4.5-0.7,6.4-2.2c1.9-1.5,3.9-3.9,6-7.3h-6.7l-8.6-36.7
		C171.6,27,171.3,26.5,171.1,26.2z"/>
	<g id="carton">
		<path class="st0" d="M229.9,24.4c-1.2-0.5-2.4-0.8-3.5-0.8c-2.8,0-5.3,0.9-7.4,2.7c-2.1,1.8-3.7,4.4-4.8,7.6
			c-1.1,3.3-1.7,7-1.7,11.3c0,4.3,0.8,7.6,2.3,9.8c1.5,2.2,3.7,3.3,6.4,3.3c2,0,3.8-0.4,5.4-1.1c1.5-0.7,3.3-1.9,5.2-3.5l1.2,2.5
			c-1.3,1.6-3.1,3.1-5.4,4.4c-2.3,1.3-5,2-8.1,2c-4.2,0-7.4-1.5-9.7-4.5c-2.3-3-3.5-7.1-3.5-12.3c0-4,0.8-8.1,2.5-12.2
			s4.2-7.6,7.4-10.3c3.2-2.8,7.1-4.1,11.5-4.1c1.4,0,2.9,0.2,4.4,0.5c1.5,0.3,2.8,0.8,3.8,1.3l-1.7,6l-0.8-0.6
			C232.2,25.6,231.1,24.9,229.9,24.4z"/>
		<path class="st0" d="M265.5,56.2c0,0.8,0.2,1.4,0.5,1.7c0.3,0.4,0.7,0.5,1,0.5c0.5,0,1-0.2,1.5-0.5c0.5-0.3,1.1-0.9,1.8-1.6
			l1.1,1.7c-0.2,0.4-0.7,1-1.4,1.7c-0.7,0.7-1.6,1.4-2.7,2c-1,0.6-2.1,0.9-3.3,0.9c-3.1,0-4.6-1.7-4.4-5l0.5-3.1
			c-1.7,2.2-3.7,4.1-6,5.7c-2.3,1.6-4.6,2.4-7.1,2.4c-4,0-6.9-1.4-8.8-4.3c-1.9-2.9-2.9-6.7-2.9-11.6c0-4,0.9-8.2,2.9-12.5
			c1.9-4.3,4.6-7.9,8.2-10.7c3.6-2.9,7.7-4.3,12.5-4.3c1.1,0,2.3,0.1,3.7,0.4c1.4,0.3,2.6,0.6,3.8,0.9l4.1-1.2l-4.9,36.1
			C265.5,55.6,265.5,55.9,265.5,56.2z M258,22.9c-3.5,0-6.4,1.2-8.9,3.6c-2.5,2.4-4.4,5.4-5.7,9c-1.3,3.6-2,7.2-2,10.7
			c0,3.9,0.6,6.8,1.7,9c1.1,2.1,2.8,3.2,5.1,3.2c2.3,0,4.5-0.9,6.7-2.7c2.2-1.8,4.1-3.7,5.6-5.9l3.3-25.1
			C262.3,23.4,260.3,22.9,258,22.9z"/>
		<path class="st0" d="M288.9,25.1c1.4-1.6,3.1-3,5-4.1c1.9-1.1,4-1.7,6.1-1.7c1.2,0,2,0.2,2.4,0.4l-1.4,6.5
			c-0.7-0.4-1.9-0.6-3.5-0.6c-2.3,0-4.6,0.9-7,2.6c-2.4,1.8-4.2,4.2-5.5,7.4l-3.2,26.2H276l4.7-36.5l-3.8-1.7l0.5-2.7l7.9-1.6
			l1.4,0.7l-0.5,6.7l-0.5,3.1C286.4,28.3,287.5,26.7,288.9,25.1z"/>
		<path class="st0" d="M309.4,54.7c0,1.3,0.3,2.2,0.8,2.7c0.5,0.5,1.5,0.8,2.8,0.8c1,0,2.3-0.3,3.8-1.1c1.5-0.7,2.8-1.4,3.6-2.1
			l0.6,2.3c-1,1.2-2.6,2.3-4.8,3.4c-2.3,1.1-4.4,1.7-6.4,1.7c-4.3,0-6.5-2.1-6.5-6.2c0-1.3,0.1-2.9,0.4-4.7l3.5-27.4h-4.6l0.7-2.6
			l4.6-1.4c1.1-1.3,2.5-4.8,4.2-10.3h2.9l-1.4,10.2h10.4l-0.6,4.1h-10.2l-3.4,24.8C309.6,52.1,309.4,53.9,309.4,54.7z"/>
		<path class="st0" d="M355.2,23.8c2.5,3.1,3.8,7.3,3.8,12.8c0,4.4-0.9,8.6-2.7,12.6c-1.8,4-4.3,7.2-7.4,9.7
			c-3.2,2.5-6.8,3.7-10.8,3.7c-4.6,0-8.2-1.5-10.7-4.4c-2.6-2.9-3.9-7.1-4-12.4c0-4.5,0.8-8.8,2.6-12.9c1.8-4.1,4.3-7.4,7.5-9.9
			c3.2-2.5,6.8-3.8,10.9-3.8C349.1,19.2,352.7,20.7,355.2,23.8z M335.9,26.2c-2.1,2.3-3.6,5.1-4.7,8.6c-1.1,3.5-1.6,6.9-1.6,10.4
			c0,4.4,0.8,7.8,2.5,10.1c1.7,2.4,4,3.5,7.1,3.5c2.8,0,5.2-1.1,7.3-3.3c2.1-2.2,3.6-5,4.7-8.4c1.1-3.4,1.6-6.8,1.6-10.3
			c0-4.5-0.8-8-2.3-10.4c-1.6-2.4-3.9-3.6-7.1-3.6C340.5,22.9,338,24,335.9,26.2z"/>
		<path class="st0" d="M380.7,22.1c2.9-1.9,5.8-2.9,8.7-2.9c2.7,0,4.8,0.8,6.2,2.5c1.4,1.7,2.2,4.4,2.2,8.3c0,2.2-0.5,6-1.6,11.3
			l-0.4,2c-0.1,0.4-0.2,1.1-0.4,2c-0.9,5.3-1.4,8.8-1.6,10.7c-0.1,1.7,0.2,2.6,0.9,2.6c1,0,2.2-0.6,3.5-2l1,1.7
			c-0.5,0.7-1.5,1.7-2.9,2.7c-1.5,1.1-3,1.6-4.7,1.6c-2.7,0-4-1.4-4-4.2c0-1.1,0.1-2.6,0.4-4.4c0.3-1.8,0.6-3.7,1-5.5l0.7-3.4
			l0.4-2.3c0.6-3,0.9-5.5,1.2-7.2c0.2-1.7,0.4-3.5,0.4-5.1c0-2.5-0.4-4.1-1.1-5.1c-0.8-0.9-2.1-1.4-3.9-1.4c-2.2,0-4.6,1-7.3,3.1
			c-2.7,2.1-5,4.6-6.9,7.5l-3.7,27.2H363l4.9-36.6l-3.6-1.7l0.5-2.7l7.9-1.6l1.4,0.8l-1,9.5C375.2,26.4,377.8,24,380.7,22.1z"/>
	</g>
</g>
</svg>
