2021-11-19T13:28:30+00:00 CRITICAL Uncaught Error: Call to a member function get() on null in C:\wamp64\www\skv\papelycarton\wp-content\plugins\yith-woocommerce-request-a-quote-premium-master\includes\class.yith-ywraq-order-request.php:1921
Stack trace:
#0 C:\wamp64\www\skv\papelycarton\wp-content\plugins\yith-woocommerce-request-a-quote-premium-master\includes\class.yith-ywraq-order-request.php(1964): YITH_YWRAQ_Order_Request->get_current_order_id()
#1 C:\wamp64\www\skv\papelycarton\wp-includes\class-wp-hook.php(303): YITH_YWRAQ_Order_Request->check_quote_in_cart('')
#2 C:\wamp64\www\skv\papelycarton\wp-includes\class-wp-hook.php(327): WP_Hook->apply_filters(NULL, Array)
#3 C:\wamp64\www\skv\papelycarton\wp-includes\plugin.php(470): WP_Hook->do_action(Array)
#4 C:\wamp64\www\skv\papelycarton\wp-settings.php(600): do_action('wp_loaded')
#5 C:\wamp64\www\skv\papelycarton\wp-config.php(90): require_once('C:\\wamp64\\www\\s...')
#6 C:\wamp64\www\skv\papelycarton\wp-load.php(50): require_once('C:\\wamp64\\www\\s...')
#7 C:\wamp64\www\skv\papelycar en C:\wamp64\www\skv\papelycarton\wp-content\plugins\yith-woocommerce-request-a-quote-premium-master\includes\class.yith-ywraq-order-request.php en la línea 1921

2021-11-19T13:31:35+00:00 CRITICAL Uncaught Error: Call to a member function get() on null in C:\wamp64\www\skv\papelycarton\wp-content\plugins\yith-woocommerce-request-a-quote-premium-master\includes\class.yith-ywraq-order-request.php:1921
Stack trace:
#0 C:\wamp64\www\skv\papelycarton\wp-content\plugins\yith-woocommerce-request-a-quote-premium-master\includes\class.yith-ywraq-order-request.php(1964): YITH_YWRAQ_Order_Request->get_current_order_id()
#1 C:\wamp64\www\skv\papelycarton\wp-includes\class-wp-hook.php(303): YITH_YWRAQ_Order_Request->check_quote_in_cart('')
#2 C:\wamp64\www\skv\papelycarton\wp-includes\class-wp-hook.php(327): WP_Hook->apply_filters(NULL, Array)
#3 C:\wamp64\www\skv\papelycarton\wp-includes\plugin.php(470): WP_Hook->do_action(Array)
#4 C:\wamp64\www\skv\papelycarton\wp-settings.php(600): do_action('wp_loaded')
#5 C:\wamp64\www\skv\papelycarton\wp-config.php(90): require_once('C:\\wamp64\\www\\s...')
#6 C:\wamp64\www\skv\papelycarton\wp-load.php(50): require_once('C:\\wamp64\\www\\s...')
#7 C:\wamp64\www\skv\papelycar en C:\wamp64\www\skv\papelycarton\wp-content\plugins\yith-woocommerce-request-a-quote-premium-master\includes\class.yith-ywraq-order-request.php en la línea 1921

